{
    "__class_name__": "Core\\System\\Module",
    "filePath": "core\/pages\/super_access\/index.json",
    "status": "L",
    "mode": "S",
    "modeDescription": null,
    "description": "Index Module",
    "module": "index",
    "submodules": {
        "index": {
            "__class_name__": "Core\\System\\Submodule",
            "module": "index",
            "submodule": "index",
            "description": "First Page",
            "action": "V",
            "status": "O",
            "showMenu": null,
            "grantRequire": null
        }
    }
}