{
    "__class_name__":"Core\\System\\Module",
    "filePath":"D:\\workspace\\HazoRevistaFacear\\core\/pages\/super_access\\mail-log.json",
    "status":"O",
    "mode":"S",
    "modeDescription":null,
    "description":"Log Mail",
    "module":"mail-log",
    "submodules":{
        "index":{
            "__class_name__":"Core\\System\\Submodule",
            "module":"mail-log",
            "submodule":"index",
            "description":"Ready",
            "action":"V",
            "status":"O",
            "showMenu":"Y",
            "grantRequire":"Y"
        }
    }
}