{
    "__class_name__": "Core\\System\\Module",
    "filePath": "core\/pages\/super_access\/modules.json",
    "status": "L",
    "mode": "S",
    "modeDescription": null,
    "description": "Modules maintenance",
    "module": "modules",
    "submodules": {
        "index": {
            "__class_name__": "Core\\System\\Submodule",
            "module": "modules",
            "submodule": "index",
            "description": "List modules avaliables",
            "action": "V",
            "status": "O",
            "showMenu": "Y",
            "grantRequire": "Y"
        },
        "change": {
            "__class_name__": "Core\\System\\Submodule",
            "module": "modules",
            "submodule": "change",
            "description": "Change module",
            "action": "U",
            "status": "O",
            "showMenu": "Y",
            "grantRequire": "Y"
        }
    }
}