{
    "ClassName": "Core\\Model\\Permission",
    "Table": "hazo_permission",
    "Label": "Permissions",
    "Column": {
        "ID": {
            "Attribute": "ID",
            "Name": "id",
            "Label": "Permission code",
            "Null": 0,
            "Length": "",
            "Type": "integer",
            "Primary": 1,
            "Unique": "",
            "AutoIncrement": 1,
            "Default": "",
            "Reference": {
                "Table": "",
                "Column": "",
                "Label": ""
            }
        },
        "mode": {
            "Attribute": "mode",
            "Name": "mode",
            "Label": "Mode",
            "Null": 0,
            "Length": "50",
            "Type": "String",
            "Primary": 0,
            "Unique": 0,
            "AutoIncrement": 0,
            "Default": "",
            "Reference": {
                "Table": "",
                "Column": "",
                "Label": ""
            }
        },
        "module": {
            "Attribute": "module",
            "Name": "module",
            "Label": "Module",
            "Null": 0,
            "Length": "100",
            "Type": "String",
            "Primary": 0,
            "Unique": "",
            "AutoIncrement": 0,
            "Default": "",
            "Reference": {
                "Table": "",
                "Column": "",
                "Label": ""
            }
        },
        "submodule": {
            "Attribute": "submodule",
            "Name": "submodule",
            "Label": "Submodule",
            "Null": 0,
            "Length": "100",
            "Type": "String",
            "Primary": 0,
            "Unique": "",
            "AutoIncrement": 0,
            "Default": "",
            "Reference": {
                "Table": "",
                "Column": "",
                "Label": ""
            }
        },
        "groupID": {
            "Attribute": "groupID",
            "Name": "group_id",
            "Label": "Group code",
            "Null": 0,
            "Length": "11",
            "Type": "char",
            "Primary": 0,
            "Unique": "",
            "AutoIncrement": 0,
            "Default": "",
            "Reference": {
                "Table": "hazo_group",
                "Column": "id",
                "Label": "id"
            }
        }
    }
}