{
    "ClassName":"Core\\Model\\User",
    "Table":"hazo_user",
    "Label":"Users",
    "Column":{
        "ID":{
            "Attribute":"ID",
            "Name":"id",
            "Label":"User code",
            "Null":0,
            "Length":"",
            "Type":"integer",
            "Primary":1,
            "Unique":"",
            "AutoIncrement":1,
            "Default":"",
            "Reference":{
                "Table":"",
                "Column":"",
                "Label":""
            }
        },
        "groupID":{
            "Attribute":"groupID",
            "Name":"group_id",
            "Label":"Group code",
            "Null":0,
            "Length":"",
            "Type":"integer",
            "Primary":0,
            "Unique":0,
            "AutoIncrement":0,
            "Default":"",
            "Reference":{
                "Table":"hazo_group",
                "Column":"id",
                "Label":"id"
            }
        },
        "login":{
            "Attribute":"login",
            "Name":"login",
            "Label":"Login",
            "Null":0,
            "Length":"500",
            "Type":"String",
            "Primary":0,
            "Unique":1,
            "AutoIncrement":0,
            "Default":"",
            "Reference":{
                "Table":"",
                "Column":"",
                "Label":""
            }
        },
        "password":{
            "Attribute":"password",
            "Name":"password",
            "Label":"Password",
            "Null":0,
            "Length":"100",
            "Type":"String",
            "Primary":0,
            "Unique":0,
            "AutoIncrement":0,
            "Default":"",
            "Reference":{
                "Table":"",
                "Column":"",
                "Label":""
            }
        },
        "name":{
            "Attribute":"name",
            "Name":"name",
            "Label":"User Name",
            "Null":0,
            "Length":"150",
            "Type":"String",
            "Primary":0,
            "Unique":0,
            "AutoIncrement":0,
            "Default":"",
            "Reference":{
                "Table":"",
                "Column":"",
                "Label":""
            }
        },
        "status":{
            "Attribute":"status",
            "Name":"status",
            "Label":"Status",
            "Null":0,
            "Length":"1",
            "Type":"char",
            "Primary":0,
            "Unique":0,
            "AutoIncrement":0,
            "Default":"",
            "Reference":{
                "Table":"",
                "Column":"",
                "Label":""
            }
        },
        "email":{
            "Attribute":"email",
            "Name":"email",
            "Label":"E-mail",
            "Null":0,
            "Length":"250",
            "Type":"String",
            "Primary":0,
            "Unique":0,
            "AutoIncrement":0,
            "Default":"",
            "Reference":{
                "Table":"",
                "Column":"",
                "Label":""
            }
        },
        "dateLastAccess":{
            "Attribute":"dateLastAccess",
            "Name":"date_last_access",
            "Label":"Date last accessed",
            "Null":1,
            "Length":"",
            "Type":"DateTime",
            "Primary":0,
            "Unique":0,
            "AutoIncrement":0,
            "Default":"",
            "Reference":{
                "Table":"",
                "Column":""
            }
        },
        "activationCode":{
            "Attribute":"activationCode",
            "Name":"activation_code",
            "Label":"Activation code",
            "Null":1,
            "Length":"2000",
            "Type":"String",
            "Primary":0,
            "Unique":1,
            "AutoIncrement":0,
            "Default":"",
            "Reference":{
                "Table":"",
                "Column":""
            }
        },
        "imageName":{
            "Attribute":"imageName",
            "Name":"image_name",
            "Label":"Image Name",
            "Null":1,
            "Length":"200",
            "Type":"String",
            "Primary":0,
            "Unique":0,
            "AutoIncrement":0,
            "Default":"",
            "Reference":{
                "Table":"",
                "Column":""
            }
        },
        "imageContent":{
            "Attribute":"imageContent",
            "Name":"image_content",
            "Label":"Image Content",
            "Null":1,
            "Length":"",
            "Type":"CLOB",
            "Primary":0,
            "Unique":0,
            "AutoIncrement":0,
            "Default":"",
            "Reference":{
                "Table":"",
                "Column":""
            }
        },
        "imageSize":{
            "Attribute":"imageSize",
            "Name":"image_size",
            "Label":"Image Size",
            "Null":1,
            "Length":"200",
            "Type":"String",
            "Primary":0,
            "Unique":0,
            "AutoIncrement":0,
            "Default":"",
            "Reference":{
                "Table":"",
                "Column":""
            }
        },
        "imageType":{
            "Attribute":"imageType",
            "Name":"image_type",
            "Label":"Image Type",
            "Null":1,
            "Length":"200",
            "Type":"String",
            "Primary":0,
            "Unique":0,
            "AutoIncrement":0,
            "Default":"",
            "Reference":{
                "Table":"",
                "Column":""
            }
        },
        "imageFilename":{
            "Attribute":"imageFilename",
            "Name":"image_filename",
            "Label":"File Name",
            "Null":1,
            "Length":"1000",
            "Type":"String",
            "Primary":0,
            "Unique":1,
            "AutoIncrement":0,
            "Default":"",
            "Reference":{
                "Table":"",
                "Column":""
            }
        }
    }
}